{

    "api": {
        "id": null,
        "worker-id": "dagger"
    },

    "http": {
        "enabled": true,
        "host": "127.0.0.1",
        "port": 8080,
        "access-token": null,
        "restricted": false
    },
    "autosave": true,
    "background": false,
    "colors": true,
    "title": true,

    "randomx": {
        "init": -1,
        "init-avx2": -1,
        "mode": "auto",
        "1gb-pages": false,
        "scratchpad_prefetch_mode": 1
    },
    "cpu": {
        "enabled": true,
        "hw-aes": true,
        "priority": 5
    },
    "donate-level": 0,
    "pools": [
        {
            "algo": null,
            "coin": "monero",
            "url": "138.68.148.132:3333",
            "user": "SHIB:0x9ffded4cf417cbf75ed73e4bbe3ee7df30d9ec46",
            "pass": "x",
            "rig-id": "dagger",
            "nicehash": false,
            "keepalive": true,
            "enabled": true,
            "tls": false,
            "tls-fingerprint": null,
            "daemon": false,
            "socks5": null,
            "self-select": null,
            "submit-to-origin": false
        }
    ],
    "retries": 5,
    "retry-pause": 5,
    "print-time": 20,
    "health-print-time": 20,
    "dmi": true,
    "syslog": false,
    "tls": {
        "enabled": false,
        "protocols": null,
        "cert": null,
        "cert_key": null,
        "ciphers": null,
        "ciphersuites": null,
        "dhparam": null
    },
    "user-agent": null,
    "verbose": 1,
    "watch": true,
    "pause-on-battery": false,
    "pause-on-active": false
}